epss_training
…
med_qty |>  
  duplicated() |>  
  sum() 

[1] 0

Create tsibble

med_tsb <- med_qty |>  
  mutate(date = yearmonth(date)) |>  # convert chr to date format
  as_tsibble(index = date, key = c(hub_id, product_id))

med_tsb 

# A tsibble: 6,745 x 4 [1M]
# Key:       hub_id, product_id [133]
       date hub_id product_id quantity_issued
      <mth> <chr>  <chr>                <dbl>
 1 2017 Aug hub_1  product_1              721
 2 2017 Sep hub_1  product_1              795
 3 2017 Oct hub_1  product_1             1720
 4 2017 Nov hub_1  product_1              911
 5 2017 Dec hub_1  product_1              314
 6 2018 Jan hub_1  product_1             6913
 7 2018 Feb hub_1  product_1             2988
 8 2018 Mar hub_1  product_1             7120
 9 2018 Apr hub_1  product_1             3122
10 2018 May hub_1  product_1            11737
# ℹ 6,735 more rows
…
# A tibble: 3 × 5
  hub_id product_id    .from      .to    .n
  <chr>  <chr>         <mth>    <mth> <int>
1 hub_1  product_1  2018 Jul 2021 Feb    32
2 hub_1  product_1  2021 Jul 2022 Sep    15
3 hub_1  product_2  2018 Sep 2018 Sep     1

Check temporal gaps (implicit missing values)

If there is any gap, then we fill it.

med_tsb |> fill_gaps(quantity_issued=0L) # we can fill it with zero

# A tsibble: 8,795 x 4 [1M]
# Key:       hub_id, product_id [133]
       date hub_id product_id quantity_issued
      <mth> <chr>  <chr>                <dbl>
 1 2017 Aug hub_1  product_1              721
 2 2017 Sep hub_1  product_1              795
 3 2017 Oct hub_1  product_1             1720
 4 2017 Nov hub_1  product_1              911
 5 2017 Dec hub_1  product_1              314
 6 2018 Jan hub_1  product_1             6913
 7 2018 Feb hub_1  product_1             2988
 8 2018 Mar hub_1  product_1             7120
 9 2018 Apr hub_1  product_1             3122
10 2018 May hub_1  product_1            11737
# ℹ 8,785 more rows
…
Data wrangaling using tsibble

We can use the filter() function to select rows.

med_tsb |> 
  filter(hub_id == 'hub_10') 

# A tsibble: 417 x 4 [1M]
# Key:       hub_id, product_id [7]
       date hub_id product_id quantity_issued
      <mth> <chr>  <chr>                <dbl>
 1 2017 Jul hub_10 product_1              343
 2 2017 Aug hub_10 product_1               67
 3 2017 Sep hub_10 product_1              127
 4 2017 Oct hub_10 product_1              287
 5 2017 Nov hub_10 product_1              759
 6 2017 Dec hub_10 product_1              181
 7 2018 Jan hub_10 product_1             7015
 8 2018 Feb hub_10 product_1              840
 9 2018 Mar hub_10 product_1             4111
10 2018 Apr hub_10 product_1             1910
# ℹ 407 more rows

Data wrangaling using tsibble

We can use the select() function to select columns.

med_tsb |> 
  filter(hub_id == 'hub_10') |> 
  select(date, product_id, quantity_issued)

# A tsibble: 417 x 3 [1M]
# Key:       product_id [7]
       date product_id quantity_issued
      <mth> <chr>                <dbl>
 1 2017 Jul product_1              343
 2 2017 Aug product_1               67
 3 2017 Sep product_1              127
 4 2017 Oct product_1              287
 5 2017 Nov product_1              759
 6 2017 Dec product_1              181
 7 2018 Jan product_1             7015
 8 2018 Feb product_1              840
 9 2018 Mar product_1             4111
10 2018 Apr product_1             1910
# ℹ 407 more rows

Data wrangaling using tsibble

We can use group_by() function to group over keys. We can use the summarise() function to summarise over keys.

med_tsb |> 
  group_by(product_id) |> 
  summarise(total_quantity_issued = sum(quantity_issued), .groups = 'drop')

# A tsibble: 471 x 3 [1M]
# Key:       product_id [7]
   product_id     date total_quantity_issued
   <chr>         <mth>                 <dbl>
 1 product_1  2017 Jul                   691
 2 product_1  2017 Aug                 18855
 3 product_1  2017 Sep                 21654
 4 product_1  2017 Oct                 16456
 5 product_1  2017 Nov                 19694
 6 product_1  2017 Dec                 63107
 7 product_1  2018 Jan                 66703
 8 product_1  2018 Feb                 53012
 9 product_1  2018 Mar                 82566
10 product_1  2018 Apr                 56913
# ℹ 461 more rows

Data wrangaling using tsibble

We can use the mutate() function to create new variables.

med_tsb |> 
  mutate(quarter = yearquarter(date))

# A tsibble: 6,745 x 5 [1M]
# Key:       hub_id, product_id [133]
       date hub_id product_id quantity_issued quarter
      <mth> <chr>  <chr>                <dbl>   <qtr>
 1 2017 Aug hub_1  product_1              721 2017 Q3
 2 2017 Sep hub_1  product_1              795 2017 Q3
 3 2017 Oct hub_1  product_1             1720 2017 Q4
 4 2017 Nov hub_1  product_1              911 2017 Q4
 5 2017 Dec hub_1  product_1              314 2017 Q4
 6 2018 Jan hub_1  product_1             6913 2018 Q1
 7 2018 Feb hub_1  product_1             2988 2018 Q1
 8 2018 Mar hub_1  product_1             7120 2018 Q1
 9 2018 Apr hub_1  product_1             3122 2018 Q2
10 2018 May hub_1  product_1            11737 2018 Q2
# ℹ 6,735 more rows

Data wrangaling using tsibble

We can use index_by() function to group over index We can use the summarise() function to summarise over index.

med_tsb |> 
  mutate(quarter = yearquarter(date)) |> 
  index_by(quarter) |> 
  summarise(total_quantity_issues = sum(quantity_issued))

# A tsibble: 24 x 2 [1Q]
   quarter total_quantity_issues
     <qtr>                 <dbl>
 1 2017 Q3               2103843
 2 2017 Q4               2811202
 3 2018 Q1               2511488
 4 2018 Q2               3433726
 5 2018 Q3               1738860
 6 2018 Q4               2934886
 7 2019 Q1               2452192
 8 2019 Q2               1640048
 9 2019 Q3               2170015
10 2019 Q4               3045525
# ℹ 14 more rows
…
where \(c_0\) is the variance of the time series.

\(r_1\) indicates how successive values of \(y\) relate to each other.

\(r_2\) indicates how \(y\) values two periods apart relate to each other.

\(r_k\) is almost the same as the sample correlation between \(y_t\) and \(y_{t-k}\).

Autocorrelation

med_tsb_filter |> 
  filter(hub_id == 'hub_14' & product_id == 'product_5') |> 
  ACF(quantity_issued, lag_max = 24)

# A tsibble: 24 x 4 [1M]
# Key:       hub_id, product_id [1]
   hub_id product_id      lag      acf
   <chr>  <chr>      <cf_lag>    <dbl>
 1 hub_14 product_5        1M  0.681  
 2 hub_14 product_5        2M  0.485  
 3 hub_14 product_5        3M  0.320  
 4 hub_14 product_5        4M  0.160  
 5 hub_14 product_5        5M  0.195  
 6 hub_14 product_5        6M  0.162  
 7 hub_14 product_5        7M  0.0956 
 8 hub_14 product_5        8M  0.0540 
 9 hub_14 product_5        9M  0.00739
10 hub_14 product_5       10M -0.0665 
# ℹ 14 more rows
…
natural language (the length of time to predict)

provide a dataset of future time periods

Producing forecasts

fit_all_fc <- fit_all |> 
  forecast(h = 'year')

#h = "year" is equivalent to setting h = 12.

fit_all_fc

# A fable: 60 x 6 [1M]
# Key:     hub_id, product_id, .model [5]
   hub_id product_id .model     date  quantity_issued .mean
   <chr>  <chr>      <chr>     <mth>           <dist> <dbl>
 1 hub_1  product_5  naive  2023 Jul N(5568, 1.4e+08)  5568
 2 hub_1  product_5  naive  2023 Aug N(5568, 2.7e+08)  5568
 3 hub_1  product_5  naive  2023 Sep N(5568, 4.1e+08)  5568
 4 hub_1  product_5  naive  2023 Oct N(5568, 5.4e+08)  5568
 5 hub_1  product_5  naive  2023 Nov N(5568, 6.8e+08)  5568
 6 hub_1  product_5  naive  2023 Dec N(5568, 8.2e+08)  5568
 7 hub_1  product_5  naive  2024 Jan N(5568, 9.5e+08)  5568
 8 hub_1  product_5  naive  2024 Feb N(5568, 1.1e+09)  5568
 9 hub_1  product_5  naive  2024 Mar N(5568, 1.2e+09)  5568
10 hub_1  product_5  naive  2024 Apr N(5568, 1.4e+09)  5568
# ℹ 50 more rows
…
